/* XPM */
static char * flmonitor_disp1_xpm[] = {
"138 116 20 1",
" 	c #999999999999",
".	c #3A3A5F5FCDCD",
"X	c #3A3A5F5FCECE",
"o	c #42426E6ED5D5",
"O	c #66668D8DDFDF",
"+	c #8D8DADADE9E9",
"@	c #B3B3CCCCF2F2",
"#	c #DBDBECECFCFC",
"$	c #FAFAFEFEFFFF",
"%	c #FFFFFFFFFFFF",
"&	c #FFFFFAFAEEEE",
"*	c #7B7B6363CDCD",
"=	c #3A3A6363DDDD",
"-	c #BDBDFAFAFFFF",
";	c #B4B4EAEAF7F7",
":	c #D1D1CFCFEDED",
">	c #AAAAAFAFE3E3",
",	c #83838F8FD9D9",
"<	c #5A5A7474E0E0",
"1	c #C0C0FAFAFFFF",
"                                                                                                                                          ",
"                                                                                                                                          ",
"                                                                                                                                          ",
"                                                                                                                                          ",
"                                                                                                                                          ",
"                                                                                                                                          ",
"                                                                                                                                          ",
"                                                                                                                                          ",
"                                                                                                                                          ",
"                                                                                                                                          ",
"           .................................................................................................................              ",
"           .................................................................................................................              ",
"           .................................................................................................................              ",
"           .................................................................................................................              ",
"           .................................................................................................................              ",
"           .................................................................................................................              ",
"           .................................................................................................................              ",
"           .................................................................................................................              ",
"           .................................................................................................................              ",
"           .................................................................................................................              ",
"           .................................................................................................................              ",
"           .................................................................................................................              ",
"           .................................................................................................................              ",
"           .................................................................................................................              ",
"           .................................................................................................................              ",
"           .................................................................................................................              ",
"           .................................................................................................................              ",
"           .................................................................................................................              ",
"           .................................................................................................................              ",
"           .................................................................................................................              ",
"           .................................................................................................................              ",
"           .................................................................................................................              ",
"           .................................................................................................................              ",
"           .................................................................................................................              ",
"           .................................................................................................................              ",
"           .................................................................................................................              ",
"           .................................................................................................................              ",
"           .................................................................................................................              ",
"           .................................................................................................................              ",
"           .................................................................................................................              ",
"           .................................................................................................................              ",
"           .................................................................................................................              ",
"           .................................................................................................................              ",
"           .................................................................................................................              ",
"           .................................................................................................................              ",
"           ...............................................XoO+@#$%&*........................................................              ",
"           ...............................................=-%%%%%%&*........................................................              ",
"           ...............................................=;:>,<1%&*........................................................              ",
"           ....................................................=-%&*........................................................              ",
"           ....................................................=-%&*........................................................              ",
"           ....................................................=-%&*........................................................              ",
"           ....................................................=-%&*........................................................              ",
"           ....................................................=-%&*........................................................              ",
"           ....................................................=-%&*........................................................              ",
"           ....................................................=-%&*........................................................              ",
"           ....................................................=-%&*........................................................              ",
"           ....................................................=-%&*........................................................              ",
"           ....................................................=-%&*........................................................              ",
"           ....................................................=-%&*........................................................              ",
"           ....................................................=-%&*........................................................              ",
"           ....................................................=-%&*........................................................              ",
"           ....................................................=-%&*........................................................              ",
"           ....................................................=-%&*........................................................              ",
"           ................................................=-%%%%%%%%%&*....................................................              ",
"           ................................................=-%%%%%%%%%&*....................................................              ",
"           .................................................................................................................              ",
"           .................................................................................................................              ",
"           .................................................................................................................              ",
"           .................................................................................................................              ",
"           .................................................................................................................              ",
"           .................................................................................................................              ",
"           .................................................................................................................              ",
"           .................................................................................................................              ",
"           .................................................................................................................              ",
"           .................................................................................................................              ",
"           .................................................................................................................              ",
"           .................................................................................................................              ",
"           .................................................................................................................              ",
"           .................................................................................................................              ",
"           .................................................................................................................              ",
"           .................................................................................................................              ",
"           .................................................................................................................              ",
"           .................................................................................................................              ",
"           .................................................................................................................              ",
"           .................................................................................................................              ",
"           .................................................................................................................              ",
"           .................................................................................................................              ",
"           .................................................................................................................              ",
"           .................................................................................................................              ",
"           .................................................................................................................              ",
"           .................................................................................................................              ",
"           .................................................................................................................              ",
"           .................................................................................................................              ",
"           .................................................................................................................              ",
"           .................................................................................................................              ",
"           .................................................................................................................              ",
"           .................................................................................................................              ",
"           .................................................................................................................              ",
"           .................................................................................................................              ",
"           .................................................................................................................              ",
"           .................................................................................................................              ",
"           .................................................................................................................              ",
"                                                                                                                                          ",
"                                                                                                                                          ",
"                                                                                                                                          ",
"                                                                                                                                          ",
"                                                                                                                                          ",
"                                                                                                                                          ",
"                                                                                                                                          ",
"                                                                                                                                          ",
"                                                                                                                                          ",
"                                                                                                                                          ",
"                                                                                                                                          ",
"                                                                                                                                          ",
"                                                                                                                                          ",
"                                                                                                                                          "};
